<robot name="pointFootLeg">
    <link name="base_link">
        <inertial>
            <origin xyz="0.00000 0.00000 0.00000"/>
            <mass value="10.00000"/>
            <inertia ixx="0.08300" iyy="0.08300" izz="0.15000" ixy="-0.00000" ixz="-0.00000" iyz="-0.00000"/>
        </inertial>
	    <visual>
	      <geometry>
	        <box size="0.30 0.30 0.30"/>
	      </geometry>
	      <material name="blue">
	        <color rgba="1 0 0 1"/>
	      </material>
	    </visual>        
    </link>
    <link name="LF_hipassembly">
        <inertial>
            <origin xyz="0.00000 0.00000 0.00000"/>
            <mass value="3.44000"/>
            <inertia ixx="0.13471" iyy="0.14417" izz="0.01103" ixy="-0.00000" ixz="-0.00000" iyz="-0.00000"/>
        </inertial>
	    <visual>
	      <origin rpy="0.0 0.0 0.0" xyz="0.0 0.0 0.0"/>
	      <geometry>
	        <mesh filename="package://pointfootleg_description/meshes/leg/hip.dae" scale="1 1 1"/>
	      </geometry>
	      <material name="white"/>
	    </visual>        
    </link>
    <link name="LF_upperleg">
        <inertial>
            <origin xyz="0.15074 -0.02625 -0.00000"/>
            <mass value="3.14600"/>
            <inertia ixx="0.00333" iyy="0.01565" izz="0.01622" ixy="-0.01245" ixz="-0.00000" iyz="-0.00000"/>
        </inertial>
	    <visual>
	      <origin rpy="0.0 0.0 0.0" xyz="0.0 0.0 0.0"/>
	      <geometry>
	        <mesh filename="package://pointfootleg_description/meshes/leg/upper.dae" scale="1 1 1"/>
	      </geometry>
	      <material name="blue"/>
	    </visual>
    </link>
    <link name="LF_lowerleg">
        <inertial>
            <origin xyz="0.12540 0.00050 -0.00010"/>
            <mass value="0.88100"/>
            <inertia ixx="0.00047" iyy="0.01256" izz="0.01233" ixy="0.00006" ixz="-0.00001" iyz="-0.00000"/>
        </inertial>
	    <visual>
	      <geometry>
	        <mesh filename="package://pointfootleg_description/meshes/leg/lower.dae" scale="1 1 1"/>
	      </geometry>
	      <material name="blue"/>
	    </visual>        
    </link>
    <joint name="LF_HAA" type="revolute">
        <origin xyz="0.15000 0.00000 -0.15000" rpy="2.0344439357957036 1.5707962290814481 -1.1071487177940917"/>
        <parent link="base_link"/>
        <child  link="LF_hipassembly"/>
        <limit effort="200" lower="-1.6" upper="1.6" velocity="1.0"/>
        <axis xyz="0 0 1"/>
    </joint>
    <joint name="LF_HFE" type="revolute">
        <origin xyz="0.08000 0.00000 0.00000" rpy="1.5707963705062866 -0.0 0.0"/>
        <parent link="LF_hipassembly"/>
        <child  link="LF_upperleg"/>
        <limit effort="200" lower="-1.6" upper="1.6" velocity="1.0"/>
        <axis xyz="0 0 1"/>
    </joint>
    <joint name="LF_KFE" type="revolute">
        <origin xyz="0.35000 0.00000 0.00000" rpy="0.0 0.0 0.0"/>
        <parent link="LF_upperleg"/>
        <child  link="LF_lowerleg"/>
        <limit effort="200" lower="-1.6" upper="1.6" velocity="1.0"/>
        <axis xyz="0 0 1"/>
    </joint>
</robot>

